<?xml version="1.0" encoding="UTF-8" standalone="no"?>
<svg
   xmlns:dc="http://purl.org/dc/elements/1.1/"
   xmlns:cc="http://creativecommons.org/ns#"
   xmlns:rdf="http://www.w3.org/1999/02/22-rdf-syntax-ns#"
   xmlns:svg="http://www.w3.org/2000/svg"
   xmlns="http://www.w3.org/2000/svg"
   version="1.1"
   id="svg4149"
   viewBox="0 0 850.00001 850.00001"
   height="850"
   width="850">
  <metadata
     id="metadata4154">
    <rdf:RDF>
      <cc:Work
         rdf:about="">
        <dc:format>image/svg+xml</dc:format>
        <dc:type
           rdf:resource="http://purl.org/dc/dcmitype/StillImage" />
        <dc:title></dc:title>
      </cc:Work>
    </rdf:RDF>
  </metadata>
  <g
     transform="translate(0,-202.36216)"
     id="layer1">
    <path
       id="path4147"
       d="M 39.389812,977.55283 C 27.720156,960.89202 24.571429,928.55126 24.571429,825.35223 l 0,-131.0444 77.378761,-207.1454 c 42.55828,-113.92994 81.63517,-212.49983 86.83745,-219.04421 7.08992,-8.91892 66.01296,-11.89887 235.27625,-11.89887 203.3513,0 227.21909,1.65728 239.90548,16.65843 7.74846,9.16212 46.96477,102.62523 87.14728,207.69581 l 73.05917,191.03738 0,148.59048 c 0,122.3901 -2.63755,151.22812 -14.9586,163.54907 -13.08563,13.08563 -61.28939,14.9586 -384.9837,14.9586 l -370.025236,0 -14.818472,-21.15629 z M 559.27127,811.61131 c 11.3599,-10.28063 17.40797,-29.03657 17.40797,-53.98529 0,-58.7396 18.93376,-73.04718 96.66635,-73.04718 61.35926,0 65.13207,-1.24881 64.70704,-21.41798 -0.24845,-11.77988 -27.14181,-92.09728 -59.76348,-178.48312 L 618.97717,327.6126 427.69228,325.03957 236.40751,322.46658 177.61056,481.76871 c -32.33828,87.61618 -59.65429,168.02059 -60.70225,178.67634 -1.72885,17.57855 4.25066,19.63973 64.51392,22.23824 80.8083,3.48457 100.16492,17.32781 100.16492,71.63485 0,65.98078 14.1132,73.04719 145.8921,73.04719 93.07719,0 117.62675,-2.93456 131.79202,-15.75402 z"
       />
  </g>
</svg>
